---
http_interactions:
- request:
    method: get
    uri: https://api.flickr.com/services/rest?api_key=f8656d18c61e5252e9cc4980473085fa&format=json&method=flickr.photos.search&nojsoncallback=1&safe_search=1&text=dogs
    body:
      encoding: US-ASCII
      string: ''
    headers:
      User-Agent:
      - Faraday v2.3.0
      Accept-Encoding:
      - gzip;q=1.0,deflate;q=0.6,identity;q=0.3
      Accept:
      - "*/*"
  response:
    status:
      code: 200
      message: OK
    headers:
      Content-Type:
      - application/json
      Transfer-Encoding:
      - chunked
      Connection:
      - keep-alive
      Date:
      - Mon, 23 May 2022 17:09:30 GMT
      Server:
      - Apache/2.4.53 (Ubuntu)
      Set-Cookie:
      - ccc=%7B%22needsConsent%22%3Afalse%2C%22managed%22%3A0%2C%22changed%22%3A0%2C%22info%22%3A%7B%22cookieBlock%22%3A%7B%22level%22%3A0%2C%22blockRan%22%3A0%7D%7D%7D;
        expires=Wed, 22-Jun-2022 17:09:30 GMT; Max-Age=2592000; path=/; domain=.flickr.com
      X-Content-Type-Options:
      - nosniff
      X-Frame-Options:
      - SAMEORIGIN
      X-Cache:
      - Miss from cloudfront
      Via:
      - 1.1 251fb7e3ee81aabbe63048bd152b0682.cloudfront.net (CloudFront)
      X-Amz-Cf-Pop:
      - SEA19-C3
      X-Amz-Cf-Id:
      - UEuvFY3reQNtt9ALhFWOscnQQV_qkENttVic6vlEaL7vmNvhYj_Ciw==
    body:
      encoding: UTF-8
      string: '{"photos":{"page":1,"pages":1253,"perpage":100,"total":125222,"photo":[{"id":"52094384615","owner":"167843027@N08","secret":"5209c669c7","server":"65535","farm":66,"title":"waiting
        for dogwalker","ispublic":1,"isfriend":0,"isfamily":0},{"id":"52093711828","owner":"23713973@N06","secret":"bdcee7bec6","server":"65535","farm":66,"title":"Slapshot","ispublic":1,"isfriend":0,"isfamily":0},{"id":"52093602368","owner":"48505131@N02","secret":"cedc9b66eb","server":"65535","farm":66,"title":"Color
        5K Fun Run","ispublic":1,"isfriend":0,"isfamily":0},{"id":"52092561302","owner":"48505131@N02","secret":"d223611819","server":"65535","farm":66,"title":"Color
        5K Fun Run","ispublic":1,"isfriend":0,"isfamily":0},{"id":"52092561307","owner":"48505131@N02","secret":"7930a276dd","server":"65535","farm":66,"title":"Color
        5K Fun Run","ispublic":1,"isfriend":0,"isfamily":0},{"id":"52092561272","owner":"48505131@N02","secret":"5784d73190","server":"65535","farm":66,"title":"Color
        5K Fun Run","ispublic":1,"isfriend":0,"isfamily":0},{"id":"52092561252","owner":"48505131@N02","secret":"c664026530","server":"65535","farm":66,"title":"Color
        5K Fun Run","ispublic":1,"isfriend":0,"isfamily":0},{"id":"52092561242","owner":"48505131@N02","secret":"3bb8b2e811","server":"65535","farm":66,"title":"Color
        5K Fun Run","ispublic":1,"isfriend":0,"isfamily":0},{"id":"52094086950","owner":"48505131@N02","secret":"666871a0b1","server":"65535","farm":66,"title":"Color
        5K Fun Run","ispublic":1,"isfriend":0,"isfamily":0},{"id":"52094086975","owner":"48505131@N02","secret":"7934a4c218","server":"65535","farm":66,"title":"Color
        5K Fun Run","ispublic":1,"isfriend":0,"isfamily":0},{"id":"52093585381","owner":"48505131@N02","secret":"1fcc43ee6e","server":"65535","farm":66,"title":"Color
        5K Fun Run","ispublic":1,"isfriend":0,"isfamily":0},{"id":"52093602158","owner":"48505131@N02","secret":"075d824903","server":"65535","farm":66,"title":"Color
        5K Fun Run","ispublic":1,"isfriend":0,"isfamily":0},{"id":"52093602193","owner":"48505131@N02","secret":"b1150cee17","server":"65535","farm":66,"title":"Color
        5K Fun Run","ispublic":1,"isfriend":0,"isfamily":0},{"id":"52092561152","owner":"48505131@N02","secret":"d9d3eac3ca","server":"65535","farm":66,"title":"Color
        5K Fun Run","ispublic":1,"isfriend":0,"isfamily":0},{"id":"52093822339","owner":"48505131@N02","secret":"7d85e03243","server":"65535","farm":66,"title":"Color
        5K Fun Run","ispublic":1,"isfriend":0,"isfamily":0},{"id":"52093602083","owner":"48505131@N02","secret":"da3fc3a989","server":"65535","farm":66,"title":"Color
        5K Fun Run","ispublic":1,"isfriend":0,"isfamily":0},{"id":"52093602118","owner":"48505131@N02","secret":"87661cd25d","server":"65535","farm":66,"title":"Color
        5K Fun Run","ispublic":1,"isfriend":0,"isfamily":0},{"id":"52093602123","owner":"48505131@N02","secret":"4d9798861f","server":"65535","farm":66,"title":"Color
        5K Fun Run","ispublic":1,"isfriend":0,"isfamily":0},{"id":"52092561072","owner":"48505131@N02","secret":"bdb5ac4bf4","server":"65535","farm":66,"title":"Color
        5K Fun Run","ispublic":1,"isfriend":0,"isfamily":0},{"id":"52092561047","owner":"48505131@N02","secret":"5ab2f227d0","server":"65535","farm":66,"title":"Color
        5K Fun Run","ispublic":1,"isfriend":0,"isfamily":0},{"id":"52093554446","owner":"48505131@N02","secret":"35e1b1536e","server":"65535","farm":66,"title":"Color
        5K Fun Run","ispublic":1,"isfriend":0,"isfamily":0},{"id":"52093792179","owner":"48505131@N02","secret":"a33b0db1d8","server":"65535","farm":66,"title":"Color
        5K Fun Run","ispublic":1,"isfriend":0,"isfamily":0},{"id":"52093570808","owner":"48505131@N02","secret":"63973ca976","server":"65535","farm":66,"title":"Color
        5K Fun Run","ispublic":1,"isfriend":0,"isfamily":0},{"id":"52093792109","owner":"48505131@N02","secret":"4fee824f05","server":"65535","farm":66,"title":"Color
        5K Fun Run","ispublic":1,"isfriend":0,"isfamily":0},{"id":"52093554326","owner":"48505131@N02","secret":"4253b0dd5d","server":"65535","farm":66,"title":"Color
        5K Fun Run","ispublic":1,"isfriend":0,"isfamily":0},{"id":"52093792024","owner":"48505131@N02","secret":"05b56cccbb","server":"65535","farm":66,"title":"Color
        5K Fun Run","ispublic":1,"isfriend":0,"isfamily":0},{"id":"52092530147","owner":"48505131@N02","secret":"9d6dcdc333","server":"65535","farm":66,"title":"Color
        5K Fun Run","ispublic":1,"isfriend":0,"isfamily":0},{"id":"52092530117","owner":"48505131@N02","secret":"bac0ef5d17","server":"65535","farm":66,"title":"Color
        5K Fun Run","ispublic":1,"isfriend":0,"isfamily":0},{"id":"52092530172","owner":"48505131@N02","secret":"743a4eb3fd","server":"65535","farm":66,"title":"Color
        5K Fun Run","ispublic":1,"isfriend":0,"isfamily":0},{"id":"52094056410","owner":"48505131@N02","secret":"7457fcc29b","server":"65535","farm":66,"title":"Color
        5K Fun Run","ispublic":1,"isfriend":0,"isfamily":0},{"id":"52093791939","owner":"48505131@N02","secret":"8435ba0736","server":"65535","farm":66,"title":"Color
        5K Fun Run","ispublic":1,"isfriend":0,"isfamily":0},{"id":"52093554151","owner":"48505131@N02","secret":"4551e272c6","server":"65535","farm":66,"title":"Color
        5K Fun Run","ispublic":1,"isfriend":0,"isfamily":0},{"id":"52093778164","owner":"48505131@N02","secret":"bc2304cb60","server":"65535","farm":66,"title":"Color
        5K Fun Run","ispublic":1,"isfriend":0,"isfamily":0},{"id":"52094043055","owner":"48505131@N02","secret":"ffea721421","server":"65535","farm":66,"title":"Color
        5K Fun Run","ispublic":1,"isfriend":0,"isfamily":0},{"id":"52094043035","owner":"48505131@N02","secret":"36e9977c85","server":"65535","farm":66,"title":"Color
        5K Fun Run","ispublic":1,"isfriend":0,"isfamily":0},{"id":"52092516637","owner":"48505131@N02","secret":"c96dd3ce1a","server":"65535","farm":66,"title":"Color
        5K Fun Run","ispublic":1,"isfriend":0,"isfamily":0},{"id":"52092516677","owner":"48505131@N02","secret":"370a34cc50","server":"65535","farm":66,"title":"Color
        5K Fun Run","ispublic":1,"isfriend":0,"isfamily":0},{"id":"52093540581","owner":"48505131@N02","secret":"4177cb9698","server":"65535","farm":66,"title":"Color
        5K Fun Run","ispublic":1,"isfriend":0,"isfamily":0},{"id":"52092516557","owner":"48505131@N02","secret":"2b9024cff5","server":"65535","farm":66,"title":"Color
        5K Fun Run","ispublic":1,"isfriend":0,"isfamily":0},{"id":"52094042880","owner":"48505131@N02","secret":"4756ab8cc2","server":"65535","farm":66,"title":"Color
        5K Fun Run","ispublic":1,"isfriend":0,"isfamily":0},{"id":"52092516582","owner":"48505131@N02","secret":"fc18e43605","server":"65535","farm":66,"title":"Color
        5K Fun Run","ispublic":1,"isfriend":0,"isfamily":0},{"id":"52094042810","owner":"48505131@N02","secret":"8d8f634a8c","server":"65535","farm":66,"title":"Color
        5K Fun Run","ispublic":1,"isfriend":0,"isfamily":0},{"id":"52093556668","owner":"48505131@N02","secret":"61ab6aea9d","server":"65535","farm":66,"title":"Color
        5K Fun Run","ispublic":1,"isfriend":0,"isfamily":0},{"id":"52094042795","owner":"48505131@N02","secret":"2b4318f446","server":"65535","farm":66,"title":"Color
        5K Fun Run","ispublic":1,"isfriend":0,"isfamily":0},{"id":"52094006355","owner":"48505131@N02","secret":"19d8584c29","server":"65535","farm":66,"title":"Color
        5K Fun Run","ispublic":1,"isfriend":0,"isfamily":0},{"id":"52093741479","owner":"48505131@N02","secret":"187a54c731","server":"65535","farm":66,"title":"Color
        5K Fun Run","ispublic":1,"isfriend":0,"isfamily":0},{"id":"52094006330","owner":"48505131@N02","secret":"85337c5463","server":"65535","farm":66,"title":"Color
        5K Fun Run","ispublic":1,"isfriend":0,"isfamily":0},{"id":"52093520948","owner":"48505131@N02","secret":"eb3e4e12dd","server":"65535","farm":66,"title":"Color
        5K Fun Run","ispublic":1,"isfriend":0,"isfamily":0},{"id":"52093520988","owner":"48505131@N02","secret":"5416abec51","server":"65535","farm":66,"title":"Color
        5K Fun Run","ispublic":1,"isfriend":0,"isfamily":0},{"id":"52093503536","owner":"48505131@N02","secret":"784e190ae4","server":"65535","farm":66,"title":"Color
        5K Fun Run","ispublic":1,"isfriend":0,"isfamily":0},{"id":"52093520913","owner":"48505131@N02","secret":"9d949f72dc","server":"65535","farm":66,"title":"Color
        5K Fun Run","ispublic":1,"isfriend":0,"isfamily":0},{"id":"52094006240","owner":"48505131@N02","secret":"a1fb2443ef","server":"65535","farm":66,"title":"Color
        5K Fun Run","ispublic":1,"isfriend":0,"isfamily":0},{"id":"52094006250","owner":"48505131@N02","secret":"a885696b24","server":"65535","farm":66,"title":"Color
        5K Fun Run","ispublic":1,"isfriend":0,"isfamily":0},{"id":"52093520878","owner":"48505131@N02","secret":"b7440914df","server":"65535","farm":66,"title":"Color
        5K Fun Run","ispublic":1,"isfriend":0,"isfamily":0},{"id":"52093741359","owner":"48505131@N02","secret":"65d775b85c","server":"65535","farm":66,"title":"Color
        5K Fun Run","ispublic":1,"isfriend":0,"isfamily":0},{"id":"52093520898","owner":"48505131@N02","secret":"b60e50cff9","server":"65535","farm":66,"title":"Color
        5K Fun Run","ispublic":1,"isfriend":0,"isfamily":0},{"id":"52094006165","owner":"48505131@N02","secret":"93192f5eb8","server":"65535","farm":66,"title":"Color
        5K Fun Run","ispublic":1,"isfriend":0,"isfamily":0},{"id":"52093993015","owner":"195622538@N05","secret":"6a548ffe8e","server":"65535","farm":66,"title":"Dog
        Training Tips For Summer","ispublic":1,"isfriend":0,"isfamily":0},{"id":"52093470166","owner":"149750469@N04","secret":"b73bc18d97","server":"65535","farm":66,"title":"we
        are watching you","ispublic":1,"isfriend":0,"isfamily":0},{"id":"52093653929","owner":"195252623@N08","secret":"013cece969","server":"65535","farm":66,"title":"Fearless
        Jones","ispublic":1,"isfriend":0,"isfamily":0},{"id":"52093879950","owner":"143423816@N06","secret":"ce5d418100","server":"65535","farm":66,"title":"1969.365-143   Wet
        Dog Rose","ispublic":1,"isfriend":0,"isfamily":0},{"id":"52093879720","owner":"143423816@N06","secret":"c8c5e2da99","server":"65535","farm":66,"title":"Foxglove","ispublic":1,"isfriend":0,"isfamily":0},{"id":"52093394073","owner":"143423816@N06","secret":"f3a5320916","server":"65535","farm":66,"title":"Looking
        out of the wood","ispublic":1,"isfriend":0,"isfamily":0},{"id":"52093376071","owner":"143423816@N06","secret":"d2e7f18f42","server":"65535","farm":66,"title":"Rhododendron
        in the rain","ispublic":1,"isfriend":0,"isfamily":0},{"id":"52093375891","owner":"143423816@N06","secret":"102939d91f","server":"65535","farm":66,"title":"Wet
        Dog walker","ispublic":1,"isfriend":0,"isfamily":0},{"id":"52092334087","owner":"78627914@N08","secret":"fc10a6a1d2","server":"65535","farm":66,"title":"Family","ispublic":1,"isfriend":0,"isfamily":0},{"id":"52090201787","owner":"79986881@N00","secret":"d04a0ffd0e","server":"65535","farm":66,"title":"UK
        - London - Docklands from Shadwell Basin 01_sq_500_2648","ispublic":1,"isfriend":0,"isfamily":0},{"id":"52092351292","owner":"66944894@N06","secret":"9a1a909e3f","server":"65535","farm":66,"title":"High
        Plains Raceway","ispublic":1,"isfriend":0,"isfamily":0},{"id":"52093795360","owner":"164404778@N03","secret":"d1b498b8d7","server":"65535","farm":66,"title":"god
        bless n.w.i.","ispublic":1,"isfriend":0,"isfamily":0},{"id":"52093237831","owner":"7630637@N02","secret":"2bd453e31c","server":"65535","farm":66,"title":"Beer
        & Dogs & Vintage Snow Machines | Oxbow Beer Garden, Oxford Maine","ispublic":1,"isfriend":0,"isfamily":0},{"id":"52093237586","owner":"7630637@N02","secret":"11b6961b10","server":"65535","farm":66,"title":"Beer
        & Dogs & Vintage Snow Machines | Oxbow Beer Garden, Oxford Maine","ispublic":1,"isfriend":0,"isfamily":0},{"id":"52092205872","owner":"125535623@N07","secret":"210b2668cd","server":"65535","farm":66,"title":"Wilf
        and I in SteamTown 2019","ispublic":1,"isfriend":0,"isfamily":0},{"id":"52092159302","owner":"27849832@N07","secret":"6fd3d7b897","server":"65535","farm":66,"title":"\u5317\u658e&\u5e83\u91cd\u306e\u72ac
        \uff0f HOKUSAI & HIROSHIGE''S DOGS","ispublic":1,"isfriend":0,"isfamily":0},{"id":"52092197902","owner":"34911734@N07","secret":"1ec2361616","server":"65535","farm":66,"title":"Raining
        Cats and Dogs","ispublic":1,"isfriend":0,"isfamily":0},{"id":"52093176088","owner":"195437867@N04","secret":"3cd5722773","server":"65535","farm":66,"title":"img155","ispublic":1,"isfriend":0,"isfamily":0},{"id":"52092118757","owner":"149488811@N07","secret":"91ae93f66e","server":"65535","farm":66,"title":"Endogard-Allwormer-for-Dogs-Worm-Treatment.jpg","ispublic":1,"isfriend":0,"isfamily":0},{"id":"52093138603","owner":"71393709@N06","secret":"4daee1bb93","server":"65535","farm":66,"title":"Rewards
        favour the bold  -  (Published by GETTY IMAGES)","ispublic":1,"isfriend":0,"isfamily":0},{"id":"52093100481","owner":"16054928@N07","secret":"4468588ea6","server":"65535","farm":66,"title":"Time
        to get up !","ispublic":1,"isfriend":0,"isfamily":0},{"id":"52092020322","owner":"22941350@N02","secret":"636e8bdac6","server":"65535","farm":66,"title":"Newcastle
        - Version 2","ispublic":1,"isfriend":0,"isfamily":0},{"id":"52093047551","owner":"22941350@N02","secret":"27fb9ce0bd","server":"65535","farm":66,"title":"Newcastle","ispublic":1,"isfriend":0,"isfamily":0},{"id":"52093549720","owner":"22941350@N02","secret":"8e9f68dc6f","server":"65535","farm":66,"title":"Newcastle","ispublic":1,"isfriend":0,"isfamily":0},{"id":"52093283824","owner":"22941350@N02","secret":"81a1b388e5","server":"65535","farm":66,"title":"Newcastle","ispublic":1,"isfriend":0,"isfamily":0},{"id":"52093047486","owner":"22941350@N02","secret":"ea9d04f437","server":"65535","farm":66,"title":"Newcastle","ispublic":1,"isfriend":0,"isfamily":0},{"id":"52093549655","owner":"22941350@N02","secret":"acb1fae5fc","server":"65535","farm":66,"title":"Newcastle","ispublic":1,"isfriend":0,"isfamily":0},{"id":"52093283769","owner":"22941350@N02","secret":"5bf6474237","server":"65535","farm":66,"title":"Newcastle","ispublic":1,"isfriend":0,"isfamily":0},{"id":"52093047396","owner":"22941350@N02","secret":"1874a9970a","server":"65535","farm":66,"title":"Newcastle","ispublic":1,"isfriend":0,"isfamily":0},{"id":"52093549590","owner":"22941350@N02","secret":"750e2af503","server":"65535","farm":66,"title":"Newcastle","ispublic":1,"isfriend":0,"isfamily":0},{"id":"52092020012","owner":"22941350@N02","secret":"a1d7e237ae","server":"65535","farm":66,"title":"Newcastle","ispublic":1,"isfriend":0,"isfamily":0},{"id":"52093549465","owner":"22941350@N02","secret":"011ba9d0d9","server":"65535","farm":66,"title":"Newcastle","ispublic":1,"isfriend":0,"isfamily":0},{"id":"52093047211","owner":"22941350@N02","secret":"f6d92734a3","server":"65535","farm":66,"title":"Newcastle","ispublic":1,"isfriend":0,"isfamily":0},{"id":"52093047181","owner":"22941350@N02","secret":"e9e4a7eb34","server":"65535","farm":66,"title":"Newcastle","ispublic":1,"isfriend":0,"isfamily":0},{"id":"52092019872","owner":"22941350@N02","secret":"5402528bef","server":"65535","farm":66,"title":"Newcastle","ispublic":1,"isfriend":0,"isfamily":0},{"id":"52093283534","owner":"22941350@N02","secret":"a146a16798","server":"65535","farm":66,"title":"Newcastle","ispublic":1,"isfriend":0,"isfamily":0},{"id":"52093283489","owner":"22941350@N02","secret":"9ec8e8ac48","server":"65535","farm":66,"title":"Newcastle","ispublic":1,"isfriend":0,"isfamily":0},{"id":"52093549245","owner":"22941350@N02","secret":"a203848595","server":"65535","farm":66,"title":"Newcastle","ispublic":1,"isfriend":0,"isfamily":0},{"id":"52093549195","owner":"22941350@N02","secret":"5a05e9ce88","server":"65535","farm":66,"title":"Newcastle","ispublic":1,"isfriend":0,"isfamily":0},{"id":"52092019612","owner":"22941350@N02","secret":"4107fbb2e7","server":"65535","farm":66,"title":"Newcastle","ispublic":1,"isfriend":0,"isfamily":0},{"id":"52093283409","owner":"22941350@N02","secret":"c238a8e8a6","server":"65535","farm":66,"title":"Newcastle","ispublic":1,"isfriend":0,"isfamily":0},{"id":"52093283344","owner":"22941350@N02","secret":"18e2656632","server":"65535","farm":66,"title":"Newcastle","ispublic":1,"isfriend":0,"isfamily":0},{"id":"52093283039","owner":"22941350@N02","secret":"ac580a63af","server":"65535","farm":66,"title":"Newcastle","ispublic":1,"isfriend":0,"isfamily":0}]},"stat":"ok"}'
  recorded_at: Mon, 23 May 2022 17:09:30 GMT
recorded_with: VCR 6.1.0
